{
        "name": "test",
        "region": "tr1",
        "os_type": "linux",
        "distro": "ubuntu",
        "version": "20.04",
        "image": "ubuntu20.04-x86_64",
        "os_variant": "ubuntu20.04",
        "os_id": "ubuntu20.04",
        "vcpus": 1,
        "memory": 1024,
        "disk": 10,
        "network_type": "bridge",
        "network_iface": "virbr0"
}

